<svg width="32" height="29" viewBox="0 0 32 29" fill="none" xmlns="http://www.w3.org/2000/svg">
<path d="M16 28.8679C15.779 28.8673 15.5645 28.7934 15.3899 28.6579C9.82901 24.3372 5.99839 20.6166 3.31796 16.946C-0.102591 12.2553 -0.882716 7.92457 0.997586 4.07395C2.3378 1.32351 6.18842 -0.926851 10.6891 0.38336C12.835 1.0032 14.7073 2.33246 16 4.15397C17.2927 2.33246 19.165 1.0032 21.3109 0.38336C25.8016 -0.906848 29.6622 1.32351 31.0024 4.07395C32.8827 7.92457 32.1026 12.2553 28.682 16.946C26.0016 20.6166 22.171 24.3372 16.6101 28.6579C16.4355 28.7934 16.221 28.8673 16 28.8679ZM8.12873 2.01362C7.05781 1.97194 5.99576 2.2227 5.05658 2.73899C4.11741 3.25527 3.33656 4.01758 2.79788 4.94409C1.24763 8.12461 1.94774 11.6652 4.93822 15.7558C8.1163 19.8551 11.8377 23.5025 16 26.5976C20.1616 23.5056 23.883 19.8615 27.0618 15.7658C30.0623 11.6652 30.7524 8.12461 29.2021 4.9541C28.202 2.95377 25.2015 1.36352 21.8609 2.30367C20.7898 2.62022 19.7968 3.15752 18.9459 3.881C18.0949 4.60447 17.4049 5.49809 16.9201 6.50434C16.8448 6.68778 16.7166 6.84468 16.5519 6.9551C16.3871 7.06552 16.1933 7.12448 15.995 7.12448C15.7967 7.12448 15.6028 7.06552 15.4381 6.9551C15.2734 6.84468 15.1452 6.68778 15.0699 6.50434C14.5888 5.49557 13.8999 4.59987 13.0484 3.87594C12.1969 3.15202 11.2021 2.61622 10.1291 2.30367C9.47893 2.11484 8.80572 2.01723 8.12873 2.01362Z" fill="#1D1E2C"/>
</svg>
