<svg width="32" height="33" viewBox="0 0 32 33" fill="none" xmlns="http://www.w3.org/2000/svg">
<path d="M28.9423 17.3278V16.4332V15.5268L31.2024 13.5492C31.619 13.182 31.8924 12.6793 31.9743 12.1301C32.0561 11.5808 31.9412 11.0203 31.6497 10.5475L28.8717 5.839C28.6653 5.48147 28.3685 5.1845 28.011 4.97789C27.6536 4.77128 27.2481 4.6623 26.8353 4.66187C26.5794 4.65991 26.325 4.69967 26.0819 4.77959L23.2215 5.74483C22.7276 5.41666 22.2125 5.12172 21.6794 4.86199L21.0791 1.89561C20.9714 1.35367 20.6766 0.866849 20.2462 0.520374C19.8158 0.1739 19.2773 -0.0101542 18.7248 0.000432514H13.2159C12.6634 -0.0101542 12.1249 0.1739 11.6945 0.520374C11.2641 0.866849 10.9692 1.35367 10.8616 1.89561L10.2613 4.86199C9.7244 5.12166 9.20533 5.41659 8.70744 5.74483L5.90586 4.7325C5.66019 4.66849 5.40579 4.64464 5.1525 4.66187C4.73965 4.6623 4.33417 4.77128 3.97674 4.97789C3.6193 5.1845 3.32249 5.48147 3.11606 5.839L0.338033 10.5475C0.0632751 11.0195 -0.0388238 11.5724 0.0492228 12.1114C0.137269 12.6504 0.409983 13.1421 0.820657 13.5021L3.04543 15.5386V17.3396L0.820657 19.3172C0.398383 19.6797 0.11821 20.1801 0.0298582 20.7297C-0.0584935 21.2792 0.0506902 21.8422 0.338033 22.3188L3.11606 27.0274C3.32249 27.3849 3.6193 27.6819 3.97674 27.8885C4.33417 28.0951 4.73965 28.2041 5.1525 28.2045C5.40835 28.2065 5.66281 28.1667 5.90586 28.0868L8.76629 27.1215C9.26015 27.4497 9.7753 27.7446 10.3083 28.0044L10.9087 30.9708C11.0163 31.5127 11.3111 31.9995 11.7415 32.346C12.172 32.6925 12.7105 32.8765 13.2629 32.8659H18.819C19.3714 32.8765 19.91 32.6925 20.3404 32.346C20.7708 31.9995 21.0656 31.5127 21.1733 30.9708L21.7736 28.0044C22.3104 27.7447 22.8295 27.4498 23.3274 27.1215L26.1761 28.0868C26.4191 28.1667 26.6736 28.2065 26.9294 28.2045C27.3423 28.2041 27.7478 28.0951 28.1052 27.8885C28.4626 27.6819 28.7594 27.3849 28.9659 27.0274L31.6497 22.3188C31.9245 21.8468 32.0266 21.294 31.9385 20.7549C31.8505 20.2159 31.5778 19.7243 31.1671 19.3642L28.9423 17.3278ZM26.8353 25.8502L22.7977 24.4848C21.8525 25.2853 20.7723 25.9111 19.6077 26.3329L18.7719 30.5588H13.2159L12.3801 26.3799C11.2246 25.9463 10.1503 25.3215 9.20183 24.5319L5.1525 25.8502L2.37447 21.1417L5.57627 18.3166C5.35861 17.0981 5.35861 15.8507 5.57627 14.6322L2.37447 11.7247L5.1525 7.01614L9.19006 8.38161C10.1352 7.58103 11.2154 6.95522 12.3801 6.53351L13.2159 2.30761H18.7719L19.6077 6.48643C20.7631 6.92011 21.8375 7.54484 22.7859 8.33452L26.8353 7.01614L29.6133 11.7247L26.4115 14.5498C26.6291 15.7683 26.6291 17.0157 26.4115 18.2342L29.6133 21.1417L26.8353 25.8502Z" fill="#1D1E2C"/>
<path d="M15.9939 23.4962C14.5971 23.4962 13.2315 23.082 12.0701 22.3059C10.9086 21.5298 10.0033 20.4268 9.46878 19.1362C8.93421 17.8457 8.79435 16.4256 9.06687 15.0555C9.33938 13.6855 10.012 12.427 10.9998 11.4393C11.9875 10.4515 13.246 9.77884 14.6161 9.50632C15.9861 9.2338 17.4062 9.37367 18.6968 9.90823C19.9873 10.4428 21.0904 11.3481 21.8664 12.5095C22.6425 13.671 23.0567 15.0365 23.0567 16.4334C23.0662 17.3635 22.8899 18.2862 22.5383 19.1473C22.1868 20.0085 21.6669 20.7909 21.0091 21.4486C20.3514 22.1063 19.5691 22.6262 18.7079 22.9778C17.8467 23.3294 16.9241 23.5056 15.9939 23.4962ZM15.9939 11.7249C15.3716 11.7104 14.7529 11.8223 14.1751 12.0538C13.5972 12.2852 13.0724 12.6315 12.6322 13.0717C12.1921 13.5118 11.8458 14.0367 11.6143 14.6145C11.3828 15.1923 11.2709 15.8111 11.2854 16.4334C11.2709 17.0557 11.3828 17.6745 11.6143 18.2523C11.8458 18.8301 12.1921 19.355 12.6322 19.7951C13.0724 20.2353 13.5972 20.5815 14.1751 20.813C14.7529 21.0445 15.3716 21.1564 15.9939 21.1419C16.6162 21.1564 17.235 21.0445 17.8128 20.813C18.3906 20.5815 18.9155 20.2353 19.3557 19.7951C19.7958 19.355 20.1421 18.8301 20.3736 18.2523C20.6051 17.6745 20.717 17.0557 20.7025 16.4334C20.717 15.8111 20.6051 15.1923 20.3736 14.6145C20.1421 14.0367 19.7958 13.5118 19.3557 13.0717C18.9155 12.6315 18.3906 12.2852 17.8128 12.0538C17.235 11.8223 16.6162 11.7104 15.9939 11.7249Z" fill="#1D1E2C"/>
</svg>
